<svg width="8" height="14" viewBox="0 0 8 14" fill="none" xmlns="http://www.w3.org/2000/svg">
<path fill-rule="evenodd" clip-rule="evenodd" d="M6.50769 13.8846L0.138462 7.57692C-0.0461534 7.39231 -0.0461534 7.08462 0.138462 6.9L6.50769 0.592308C6.69231 0.407693 7 0.407693 7.18462 0.592308L7.86154 1.26923C8.04615 1.45385 8.04615 1.76154 7.86154 1.94615L2.84615 6.9C2.66154 7.08462 2.66154 7.39231 2.84615 7.57692L7.83077 12.5308C8.01538 12.7154 8.01538 13.0231 7.83077 13.2077L7.15385 13.8846C6.96923 14.0385 6.69231 14.0385 6.50769 13.8846Z" fill="#7F8FA4"/>
<mask id="mask0" mask-type="alpha" maskUnits="userSpaceOnUse" x="0" y="0" width="8" height="14">
<path fill-rule="evenodd" clip-rule="evenodd" d="M6.50769 13.8846L0.138462 7.57692C-0.0461534 7.39231 -0.0461534 7.08462 0.138462 6.9L6.50769 0.592308C6.69231 0.407693 7 0.407693 7.18462 0.592308L7.86154 1.26923C8.04615 1.45385 8.04615 1.76154 7.86154 1.94615L2.84615 6.9C2.66154 7.08462 2.66154 7.39231 2.84615 7.57692L7.83077 12.5308C8.01538 12.7154 8.01538 13.0231 7.83077 13.2077L7.15385 13.8846C6.96923 14.0385 6.69231 14.0385 6.50769 13.8846Z" fill="white"/>
</mask>
<g mask="url(#mask0)">
</g>
</svg>
